{
  "/js/admin/main.js": "/js/admin/main.js",
  "/js/admin/vendor.js": "/js/admin/vendor.js",
  "/js/admin/manifest.js": "/js/admin/manifest.js",
  "/js/app.js": "/js/app.js",
  "/css/app.css": "/css/app.css"
}